{
    "page": 1,
    "total_results": 238,
    "total_pages": 12,
    "results": [{
        "vote_count": 941,
        "id": 984,
        "video": false,
        "vote_average": 7.5,
        "title": "L'Inspecteur Harry",
        "popularity": 10.195,
        "poster_path": "\/3neG7JmBEYT1K1IEk81FlGqE4AR.jpg",
        "original_language": "en",
        "original_title": "Dirty Harry",
        "genre_ids": [28, 80, 53],
        "backdrop_path": "\/t3OZS8yMs0NL4YgWWc04eXHTn1X.jpg",
        "adult": false,
        "overview": "Un tueur inconnu menace de poursuivre une série d'assassinats si la police de San Francisco ne lui remet pas immédiatement 200 000 dollars. L'inspecteur Harry Callahan, aux méthodes expéditives mais efficaces, le traque.",
        "release_date": "1971-12-21"
    }, {
        "vote_count": 470,
        "id": 25941,
        "video": false,
        "vote_average": 6.8,
        "title": "Harry Brown",
        "popularity": 7.088,
        "poster_path": "\/pDpmDR9GwA46eptydUe0xSkYJUh.jpg",
        "original_language": "en",
        "original_title": "Harry Brown",
        "genre_ids": [53, 80, 18, 28],
        "backdrop_path": "\/szj3uqOGDu8Uwvwo0Si42BCxI04.jpg",
        "adult": false,
        "overview": "Ancien marine à la retraite, Harry Brown (Michael Caine) vit dans un quartier difficile de Londres. Témoin de la violence quotidienne engendrée par les trafics de toute sorte, il évite soigneusement toute confrontation et invite son vieil ami Leonard à en faire de même.Le jour où l'inspectrice Frampton (Emily Mortimer) lui annonce le meurtre de Leonard, Harry, dévasté, ne peut que constater l'impuissance de la police.Un soir, en rentrant du pub, il se retrouve face à un junkie qui le menace d'un couteau. Malgré les effets de l'alcool, Harry retrouve d'anciens réflexes.",
        "release_date": "2009-11-11"
    }, {
        "vote_count": 12147,
        "id": 671,
        "video": false,
        "vote_average": 7.8,
        "title": "Harry Potter à l'école des sorciers",
        "popularity": 43.971,
        "poster_path": "\/4bUd3nUGD2XnhLkYNCXHFjPHEH5.jpg",
        "original_language": "en",
        "original_title": "Harry Potter and the Philosopher's Stone",
        "genre_ids": [12, 14, 10751],
        "backdrop_path": "\/hziiv14OpD73u9gAak4XDDfBKa2.jpg",
        "adult": false,
        "overview": "Orphelin, Harry Potter a été recueilli en bas âge par sa tante Pétunia et son oncle Vernon, deux abominables créatures qui, depuis dix ans, prennent un malin plaisir à l’humilier, le houspiller et le malmemer. Contraint de se nourrir de restes et de dormir dans un placard infesté d’araignées, le malheureux est en butte à l’hostilité de son cousin Dudley, obèse imbécile qui ne manque pas une occasion de le rouer de coups. L’année de ses 11 ans, Harry ne s’attend pas à recevoir de cadeaux, pourtant cette année là, une lettre mystérieuse va lui parvenir qui va changer son existence...",
        "release_date": "2001-11-16"
    }, {
        "vote_count": 307,
        "id": 2639,
        "video": false,
        "vote_average": 7.3,
        "title": "Harry dans tous ses états",
        "popularity": 6.819,
        "poster_path": "\/thFT6cwSxgkTwTtFjGxKfp3rPaQ.jpg",
        "original_language": "en",
        "original_title": "Deconstructing Harry",
        "genre_ids": [35, 18],
        "backdrop_path": "\/1KC0Td0TfHuHEIzZ0dTGsEOkYcs.jpg",
        "adult": false,
        "overview": "Harry, auteur célèbre en panne d'inspiration, est invité par son ancienne université, dont il fut jadis viré, pour un hommage. Il est brouillé avec tout le monde, ses femmes, ses maîtresses, ses psys et ne trouve pour l'accompagner à la cérémonie que Cookie, une prostituée noire, Richard, son ami cardiaque et Hilly, son jeune fils, qu'il a enlevé à la sortie de l'école.",
        "release_date": "1997-12-12"
    }, {
        "vote_count": 10239,
        "id": 672,
        "video": false,
        "vote_average": 7.6,
        "title": "Harry Potter et la Chambre des Secrets",
        "popularity": 32.139,
        "poster_path": "\/ygsu82q2YSrIdePnM2GLGjsFFjr.jpg",
        "original_language": "en",
        "original_title": "Harry Potter and the Chamber of Secrets",
        "genre_ids": [12, 14, 10751],
        "backdrop_path": "\/avqzwKn89VetTEvAlBePt3Us6Al.jpg",
        "adult": false,
        "overview": "Alors que l'oncle Vernon, la tante Pétunia et son cousin Dudley reçoivent d'importants invités à dîner, Harry Potter est contraint de passer la soirée dans sa chambre. Dobby, un elfe, fait alors son apparition. Il lui annonce que de terribles dangers menacent l'école de Poudlard et qu'il ne doit pas y retourner en septembre. Harry refuse de le croire. Mais sitôt la rentrée des classes effectuée, ce dernier entend une voix malveillante. Celle-ci lui dit que la redoutable et légendaire Chambre des Secrets est à nouveau ouverte, permettant ainsi à l'héritier de Serpentard de semer le chaos à Poudlard. Les victimes, retrouvées pétrifiées par une force mystérieuse, se succèdent dans les couloirs de l'école, sans que les professeurs - pas même le populaire Gilderoy Lockhart - ne parviennent à endiguer la menace. Aidé de Ron et Hermione, Harry doit agir au plus vite pour sauver Poudlard.",
        "release_date": "2002-11-13"
    }, {
        "vote_count": 9438,
        "id": 675,
        "video": false,
        "vote_average": 7.6,
        "title": "Harry Potter et l'Ordre du Phénix",
        "popularity": 26.944,
        "poster_path": "\/gjBkWqXJYGbDl0GkaKxUnQZWvQw.jpg",
        "original_language": "en",
        "original_title": "Harry Potter and the Order of the Phoenix",
        "genre_ids": [12, 14, 10751, 9648],
        "backdrop_path": "\/gGt4ePOhD8ilxd3FYhKB06L2CyG.jpg",
        "adult": false,
        "overview": "Alors qu'il entame sa cinquième année d'étude à Poudlard, Harry Potter découvre qu'une bonne partie de la communauté des sorciers feint d'ignorer sa récente confrontation avec Lord Voldemort, et préfèrent nier cette aveuglante évidence : le Seigneur des Ténèbres est bel et bien vivant. De plus, la communauté magique lit les mensonges de Rita Skeeter dans la Gazette du Sorcier sous contrôle du Ministère de la Magie. Craignant que le puissant Albus Dumbledore ne mente à propos du retour de Voldemort dans le but de saper son autorité et de lui ravir son poste, le Ministre de la Magie Cornélius Fudge nomme un nouveau Professeur de Défense contre les Forces du Mal, qu'il charge de surveiller le vieux doyen et ses étudiants. Mais celle-ci, Dolores Ombrage, se révèle incapable de préparer les collégiens à affronter les nouvelles menaces qui planent sur Poudlard...",
        "release_date": "2007-06-28"
    }, {
        "vote_count": 9692,
        "id": 674,
        "video": false,
        "vote_average": 7.7,
        "title": "Harry Potter et la Coupe de Feu",
        "popularity": 25.173,
        "poster_path": "\/1npuMArTSXH5Wn3GK8Bdu9iD6ej.jpg",
        "original_language": "en",
        "original_title": "Harry Potter and the Goblet of Fire",
        "genre_ids": [12, 14, 10751],
        "backdrop_path": "\/gzKW3emulMxIHzuXxZoyDB1lei9.jpg",
        "adult": false,
        "overview": "La quatrième année à l'école de Poudlard est marquée par le \"Tournoi des trois sorciers\". Les participants sont choisis par la fameuse \"Coupe de feu\" qui est à l'origine d'un scandale. Elle sélectionne Harry Potter alors qu'il n'a pas l'âge légal requis ! Accusé de tricherie et mis à mal par une série d'épreuves physiques de plus en plus difficiles, ce dernier sera enfin confronté à Celui dont on ne doit pas prononcer le nom, Lord V.",
        "release_date": "2005-11-16"
    }, {
        "vote_count": 251,
        "id": 8989,
        "video": false,
        "vote_average": 5.7,
        "title": "Bigfoot et les Henderson",
        "popularity": 8.418,
        "poster_path": "\/uufhn369YBbUXiuFVllQLvKMOtu.jpg",
        "original_language": "en",
        "original_title": "Harry and the Hendersons",
        "genre_ids": [35, 10751, 14],
        "backdrop_path": "\/zpLxlU7tZ3wnAKudHOlhuluR5nm.jpg",
        "adult": false,
        "overview": "La famille Henderson fait une hallucinante découverte lors d'une ballade en forêt: Bigfoot, une créature géante entièrement recouverte de poils. Ils la ramènent chez eux, pensant qu'elle est morte. Mais Bigfoot est vivant. Lorsqu'il se réveille, il séduit tout de suite les Henderson. Mais Bigfoot va s'enfuir de sa nouvelle demeure...",
        "release_date": "1987-06-05"
    }, {
        "vote_count": 9184,
        "id": 767,
        "video": false,
        "vote_average": 7.6,
        "title": "Harry Potter et le Prince de sang-mêlé",
        "popularity": 27.772,
        "poster_path": "\/mR2K8bGX95NUWAxCJwRf7qOCZKo.jpg",
        "original_language": "en",
        "original_title": "Harry Potter and the Half-Blood Prince",
        "genre_ids": [12, 14, 10751],
        "backdrop_path": "\/kRyojLYtWPsBKfDhphhhl1FdM5a.jpg",
        "adult": false,
        "overview": "Voldemort a renforcé son emprise sur le monde des sorciers aussi bien que sur celui des Moldus, et Poudlard n’est plus un endroit sûr. Harry est d’ailleurs persuadé que le danger rôde à l’intérieur même de l’école mais Dumbledore est plus soucieux de le préparer pour la bataille finale qu’il sent approcher à grands pas. Ensemble, ils tentent de trouver le talon d’Achille de Voldemort et, à cette fin, Dumbledore fait appel au Professeur Horace Slughorn, qui détient des informations cruciales.",
        "release_date": "2009-07-07"
    }, {
        "vote_count": 10083,
        "id": 673,
        "video": false,
        "vote_average": 7.9,
        "title": "Harry Potter et le Prisonnier d'Azkaban",
        "popularity": 26.246,
        "poster_path": "\/pDqOMbfVlwVqmTAScSy5fXPfX0s.jpg",
        "original_language": "en",
        "original_title": "Harry Potter and the Prisoner of Azkaban",
        "genre_ids": [12, 14, 10751],
        "backdrop_path": "\/wUpBH6RIH4uOiWoPjj8MKUemu9F.jpg",
        "adult": false,
        "overview": "Sirius Black, un dangereux sorcier criminel, s'échappe de la sombre prison d'Azkaban avec un seul et unique but : retrouver Harry Potter, en troisième année à l'école de Poudlard. Selon la légende, Black aurait jadis livré les parents du jeune sorcier à leur assassin, Lord Voldemort, et serait maintenant déterminé à tuer Harry...",
        "release_date": "2004-05-31"
    }, {
        "vote_count": 112,
        "id": 11718,
        "video": false,
        "vote_average": 5.5,
        "title": "Who's Harry Crumb?",
        "popularity": 6.301,
        "poster_path": "\/eimYRIjRCIi7k7RR8D9RtVakPl8.jpg",
        "original_language": "en",
        "original_title": "Who's Harry Crumb?",
        "genre_ids": [35, 80, 9648],
        "backdrop_path": "\/dPK3UCOrDqLWuTKKJssKxNHz0vA.jpg",
        "adult": false,
        "overview": "",
        "release_date": "1989-02-03"
    }, {
        "vote_count": 10123,
        "id": 12445,
        "video": false,
        "vote_average": 8.1,
        "title": "Harry Potter et les Reliques de la Mort - 2ème partie",
        "popularity": 25.896,
        "poster_path": "\/4gf2Px4oHJld9ASKLGUO1Fpots1.jpg",
        "original_language": "en",
        "original_title": "Harry Potter and the Deathly Hallows: Part 2",
        "genre_ids": [10751, 14, 12],
        "backdrop_path": "\/6n0DAcyjTHS6888mt8U9ZsLy9nR.jpg",
        "adult": false,
        "overview": "Le combat entre les puissances du bien et du mal de l’univers des sorciers se transforme en guerre sans merci. L’école Poudlard est désormais sous la coupe du professeur Rogue et des force des ténèbres. Les enjeux sont devenus considérables et personne n’est plus en sécurité alors que se rapproche l’ultime épreuve de force avec Voldemort...",
        "release_date": "2011-07-07"
    }, {
        "vote_count": 1679,
        "id": 639,
        "video": false,
        "vote_average": 7.3,
        "title": "Quand Harry rencontre Sally",
        "popularity": 10.854,
        "poster_path": "\/nz0j9i1ILN3w4nIufJQJimXOKA.jpg",
        "original_language": "en",
        "original_title": "When Harry Met Sally...",
        "genre_ids": [35, 10749, 18],
        "backdrop_path": "\/xd5SYDUhNVGLUeK2epbEjnVBpPN.jpg",
        "adult": false,
        "overview": "Harry et Sally s'entendent comme chien et chat. Après la fac ils prennent la même destination, New York, mais ne se reverront que cinq ans plus tard, par hasard, dans un aéroport. Chacun a fait sa vie, ils se sont fiancés. Cinq ans passent encore, ils se rencontrent à nouveau. Tous deux viennent de rompre et dans cette étape difficile, ils se découvrent une vraie amitié. La complicité les rapproche à tel point qu'ils finissent par admettre, ce que leurs amis savaient déjà : ils sont faits l'un pour l'autre.",
        "release_date": "1989-07-21"
    }, {
        "vote_count": 249,
        "id": 11219,
        "video": false,
        "vote_average": 7.1,
        "title": "Mais… qui a tué Harry ?",
        "popularity": 7.423,
        "poster_path": "\/vArQecN5nS1CbrOMOyhHv7RZ2e.jpg",
        "original_language": "en",
        "original_title": "The Trouble with Harry",
        "genre_ids": [35, 9648],
        "backdrop_path": "\/kqNOguuCc9fQuWrzv3LE6L1I4J1.jpg",
        "adult": false,
        "overview": "Des coups de feu, un talon de chaussure, une bouteille, un cadavre et une pléiade de suspects. Un cadavre avec une blessure à la tête est retrouvé dans les collines du Vermont. Miss Graveley pense alors que c'est elle qui a tué l'homme en le frappant avec le talon de sa chaussure parce qu'il l'avait agressé. Le Capitaine Wiles pense également être l'auteur du crime car il chassait ce matin là. Enfin, Jennifer croit reconnaître Harry, son époux, qu'elle avait repoussé en lui donnant un coup de bouteille sur la tête. Chacun va alors tenter de dissimuler le meurtre qu'il pense avoir commis. Mais est-ce réellement un meurtre ?",
        "release_date": "1955-10-03"
    }, {
        "vote_count": 9429,
        "id": 12444,
        "video": false,
        "vote_average": 7.7,
        "title": "Harry Potter et les Reliques de la Mort - 1ère partie",
        "popularity": 22.238,
        "poster_path": "\/tHisMG4YpBgwnXDyyw2VfnJjeFD.jpg",
        "original_language": "en",
        "original_title": "Harry Potter and the Deathly Hallows: Part 1",
        "genre_ids": [12, 14, 10751],
        "backdrop_path": "\/8YA36faYlkpfp6aozcGsqq68pZ9.jpg",
        "adult": false,
        "overview": "Le pouvoir de Voldemort s'étend. Celui-ci contrôle maintenant le Ministère de la Magie et Poudlard. Harry, Ron et Hermione décident de terminer le travail commencé par Dumbledore, et de retrouver les derniers Horcruxes pour vaincre le Seigneur des Ténèbres. Mais il reste bien peu d'espoir aux trois sorciers, qui doivent réussir à tout prix.",
        "release_date": "2010-10-17"
    }, {
        "vote_count": 75,
        "id": 47943,
        "video": false,
        "vote_average": 6.8,
        "title": "Harry, un ami qui vous veut du bien",
        "popularity": 4.869,
        "poster_path": "\/plzN901MkBEp6Yf2MbIegHqmtvN.jpg",
        "original_language": "fr",
        "original_title": "Harry, un ami qui vous veut du bien",
        "genre_ids": [35],
        "backdrop_path": "\/r4CpcDEwAdEBObEPjBwvc4USapO.jpg",
        "adult": false,
        "overview": "Les vacances de Claire et Michel s'annoncent plutôt difficiles. Entre leurs trois enfants, énervés par l'infernale canicule qui sévit sur la ville, et cette maison de vacances qui est en chantier depuis cinq ans, le couple est sur les nerfs. C'est alors qu'Harry debarque inopinément dans leurs vies, prêt à tout pour faire le bonheur de son ami Michel, dont il bouleversera l'existence.",
        "release_date": "2000-08-15"
    }, {
        "vote_count": 37,
        "id": 456806,
        "video": false,
        "vote_average": 8.2,
        "title": "Harry Styles: Behind the Album",
        "popularity": 2.525,
        "poster_path": "\/M9Ejub7fkAkBsqt6gz3gZJU5gO.jpg",
        "original_language": "en",
        "original_title": "Harry Styles: Behind the Album",
        "genre_ids": [10402, 99],
        "backdrop_path": "\/ejsxgl5Mb0YXHPbZFkVas41ktg.jpg",
        "adult": false,
        "overview": "",
        "release_date": "2017-05-15"
    }, {
        "vote_count": 0,
        "id": 540315,
        "video": false,
        "vote_average": 0,
        "title": "Harry & Patty",
        "popularity": 2.215,
        "poster_path": "\/kazA6Fyu9edFnudEnz2sx5cdgzb.jpg",
        "original_language": "en",
        "original_title": "Harry & Patty",
        "genre_ids": [10749, 35],
        "backdrop_path": null,
        "adult": false,
        "overview": "",
        "release_date": "2018-08-01"
    }, {
        "vote_count": 335,
        "id": 10152,
        "video": false,
        "vote_average": 4,
        "title": "Dumb & dumberer : quand Harry rencontra Lloyd",
        "popularity": 7.942,
        "poster_path": "\/eizaKEnF108gQq89f1XsAyVxjq6.jpg",
        "original_language": "en",
        "original_title": "Dumb and Dumberer: When Harry Met Lloyd",
        "genre_ids": [35],
        "backdrop_path": "\/dzGocMNPdWMfo52LcofnkfwrMaj.jpg",
        "adult": false,
        "overview": "Lorsqu'il arrive au lycée, Harry, qui avait jusque-là seulement étudié chez sa mère, a besoin d'un guide pour lui apprendre la vraie vie. Lloyd, qui habite au sous-sol de l'établissement avec son père adoptif, le concierge Ray, est idéal pour cette mission. C'est le début d'une belle amitié et de gros problèmes...Tous deux vont involontairement servir l'infâme complot du corrompu proviseur Collins et de sa maîtresse, Mrs. Heller : ceux-ci veulent faire des deux garçons les premiers membres d'une fausse \"classe pilote pour élèves délicats\" qui leur permettra de détourner 100 000 dollars d'aide.Naïfs et enthousiastes, Harry et Lloyd se mettent à recruter tous les élèves \"spéciaux\", mais ils éveillent également l'attention de la très belle Jessica Matthews, reporter pour le journal du lycée, qui suspecte l'embrouille...",
        "release_date": "2003-06-13"
    }, {
        "vote_count": 23,
        "id": 91767,
        "video": false,
        "vote_average": 5.7,
        "title": "L'affrontement",
        "popularity": 1.907,
        "poster_path": "\/9FcoGx9CdoMOL6SNdTuzgSgR9O2.jpg",
        "original_language": "en",
        "original_title": "Harry & Son",
        "genre_ids": [18],
        "backdrop_path": "\/6YwEwhzud2GcmrG2AbYcoHIfvWH.jpg",
        "adult": false,
        "overview": "Harry Dobbins conducteur d'engins pour travaux publics, vit seul avec son fils Howard. À la suite d'un accident de travail, il est licencié. Moralement touché, il devient peu à peu acariâtre et difficile à vivre.",
        "release_date": "1984-03-02"
    }]
}